Games in November:
Powerball,11/16,$70 MILLION,"['14', '22', '26', '55', '63', '26']"
Powerball,11/13,$60 MILLION,"['23', '26', '27', '28', '66', '11']"
Powerball,11/23,$90 MILLION,"['28', '35', '38', '61', '66', '23']"
Powerball,11/20,$80 MILLION,"['7', '15', '39', '40', '57', '12']"
Powerball,11/09,$50 MILLION,"['14', '17', '35', '38', '60', '25']"
Powerball,11/06,$40 MILLION,"['15', '28', '46', '62', '64', '17']"
Powerball,11/30,$110 MILLION,"['15', '35', '42', '63', '68', '18']"
Powerball,11/27,$100 MILLION,"['15', '26', '37', '53', '55', '21']"
Games in October:
Powerball,10/19,$110 MILLION,"['14', '27', '29', '59', '65', '12']"
Powerball,10/16,$100 MILLION,"['1', '5', '25', '63', '67', '3']"
Powerball,10/26,$130 MILLION,"['3', '20', '48', '54', '59', '4']"
Powerball,10/23,$120 MILLION,"['5', '12', '50', '61', '69', '23']"
Powerball,10/12,$90 MILLION,"['12', '29', '34', '53', '65', '23']"
Powerball,10/09,$80 MILLION,"['5', '18', '33', '43', '65', '2']"
Powerball,11/02,$150 MILLION,"['3', '23', '32', '37', '58', '22']"
Powerball,10/30,$140 MILLION,"['19', '22', '52', '56', '67', '21']"
Games in December:
Powerball,12/21,$171 MILLION,"['19', '31', '35', '50', '67', '14']"
Powerball,12/18,$160 MILLION,"['14', '18', '26', '39', '68', '9']"
Powerball,12/14,$150 MILLION,"['3', '6', '12', '32', '64', '19']"
Powerball,12/11,$140 MILLION,"['24', '29', '42', '44', '63', '10']"
Powerball,01/04,$237 MILLION,"['1', '11', '21', '25', '54', '7']"
Powerball,01/01,$220 MILLION,"['49', '53', '57', '59', '62', '26']"
Powerball,12/07,$130 MILLION,"['18', '42', '53', '62', '66', '25']"
Powerball,12/04,$120 MILLION,"['8', '27', '44', '51', '61', '14']"
Powerball,12/28,$200 MILLION,"['20', '23', '39', '59', '60', '18']"
Powerball,12/25,$183 MILLION,"['2', '4', '16', '30', '46', '20']"
